<?xml version="1.0" encoding="UTF-8" standalone="no"?>
<svg
   xmlns:dc="http://purl.org/dc/elements/1.1/"
   xmlns:cc="http://creativecommons.org/ns#"
   xmlns:rdf="http://www.w3.org/1999/02/22-rdf-syntax-ns#"
   xmlns:svg="http://www.w3.org/2000/svg"
   xmlns="http://www.w3.org/2000/svg"
   xmlns:sodipodi="http://sodipodi.sourceforge.net/DTD/sodipodi-0.dtd"
   xmlns:inkscape="http://www.inkscape.org/namespaces/inkscape"
   width="195.19798mm"
   height="196.62138mm"
   viewBox="0 0 195.19798 196.62138"
   version="1.1"
   id="svg926"
   inkscape:version="1.0.1 (3bc2e813f5, 2020-09-07)"
   sodipodi:docname="wwg_atom_klecks_green.svg">
  <defs
     id="defs920">
    <clipPath
       clipPathUnits="userSpaceOnUse"
       id="clipPath2496">
      <rect
         style="fill:#282828;stroke:#000000;stroke-width:0.533517"
         id="rect2498"
         width="412.74512"
         height="364.5549"
         x="-85.389862"
         y="-65.324791"
         transform="scale(1,-1)" />
    </clipPath>
    <clipPath
       clipPathUnits="userSpaceOnUse"
       id="clipPath2500">
      <rect
         style="fill:#282828;stroke:#000000;stroke-width:0.533517"
         id="rect2502"
         width="412.74512"
         height="364.5549"
         x="30.137941"
         y="-391.056"
         transform="scale(1,-1)" />
    </clipPath>
  </defs>
  <sodipodi:namedview
     id="base"
     pagecolor="#ffffff"
     bordercolor="#666666"
     borderopacity="1.0"
     inkscape:pageopacity="0.0"
     inkscape:pageshadow="2"
     inkscape:zoom="0.35"
     inkscape:cx="360.93709"
     inkscape:cy="417.82356"
     inkscape:document-units="mm"
     inkscape:current-layer="atom_sw"
     inkscape:document-rotation="0"
     showgrid="false"
     inkscape:window-width="1904"
     inkscape:window-height="1124"
     inkscape:window-x="45"
     inkscape:window-y="29"
     inkscape:window-maximized="0" />
  <metadata
     id="metadata923">
    <rdf:RDF>
      <cc:Work
         rdf:about="">
        <dc:format>image/svg+xml</dc:format>
        <dc:type
           rdf:resource="http://purl.org/dc/dcmitype/StillImage" />
        <dc:title></dc:title>
      </cc:Work>
    </rdf:RDF>
  </metadata>
  <g
     inkscape:label="Ebene 1"
     inkscape:groupmode="layer"
     id="layer1"
     transform="translate(-10.335396,-37.617515)">
    <g
       id="klecks"
       transform="matrix(1.1024814,0,0,-1.1024814,-32.804714,460.08938)"
       clip-path="url(#clipPath2500)">
      <g
         id="klecks_big"
         transform="translate(116.2984,341.2634)"
         inkscape:label="klecks_big">
        <desc
           id="desc1023">klecks_big</desc>
        <title
           id="title1021">klecks_big</title>
        <path
           d="m 0,0 c 0.163,-0.573 0.328,-1.123 0.493,-1.645 2.159,-6.81 5.149,-9.135 7.142,-8.637 1.993,0.498 6.039,6.98 6.976,9.467 0.864,2.292 0.997,6.094 0.997,6.094 0,0 0.747,-1.498 1.328,-5.728 0.598,-4.353 0,-9.335 3.987,-10.331 3.986,-0.997 22.92,24.083 29.232,27.903 6.311,3.82 7.474,-2.325 6.81,-4.152 C 56.3,11.144 38.528,-7.957 37.034,-11.943 c -1.495,-3.986 -3.488,-8.305 -0.831,-9.135 2.658,-0.831 17.705,12.457 19.433,10.298 1.728,-2.159 -0.83,-7.188 -3.82,-10.57 -2.99,-3.382 -6.81,-3.88 -6.478,-7.867 0.332,-3.986 4.153,-8.138 8.969,-7.972 4.817,0.166 11.793,0.664 14.118,1.163 2.325,0.498 10.132,2.491 17.274,5.481 7.142,2.989 11.46,2.657 12.457,0.996 0.996,-1.661 3.225,-3.747 0.201,-5.813 -3.025,-2.066 -5.35,1.827 -7.675,1.827 -2.326,0 -23.586,-2.159 -30.562,-5.481 -6.975,-3.322 -11.626,-5.149 -10.629,-7.474 0.996,-2.326 0.83,-4.319 6.809,-5.315 5.98,-0.997 27.073,0 31.06,-1.827 3.986,-1.827 3.488,-3.82 1.162,-5.481 -2.325,-1.661 -29.066,1.495 -34.713,-0.997 -5.647,-2.491 -6.976,-4.983 -6.145,-7.308 0.83,-2.325 6.809,-7.972 8.47,-8.803 1.661,-0.83 3.322,-1.451 0.665,-0.83 -2.658,0.621 -13.288,3.476 -15.447,1.495 -2.159,-1.982 -0.498,-9.302 0.332,-10.63 0.831,-1.329 26.077,-44.347 25.08,-47.337 -0.996,-2.989 -4.318,-3.321 -5.149,-2.491 -0.83,0.83 -9.633,14.45 -12.789,15.28 -3.156,0.831 -5.647,-0.83 -7.64,0.499 -1.993,1.329 -12.822,19.2 -14.45,22.422 -0.977,1.933 -5.016,3.688 -5.016,3.688 0,0 -2.79,1.129 -5.448,2.125 -2.657,0.997 -4.318,1.495 -6.478,0 -1.554,-1.076 -6.983,-11.795 -10.026,-18.21"
           style="fill:#8abf4e;fill-opacity:1;fill-rule:nonzero;stroke:none"
           id="path871" />
      </g>
      <g
         id="kleck_nn"
         transform="translate(133.3677,383.2009)"
         inkscape:label="kleck_nn">
        <desc
           id="desc1019">kleck_nn</desc>
        <title
           id="title1017">kleck_nn</title>
        <path
           d="m 0,0 c -2.942,-0.997 -6.112,-3.222 -5.448,-6.544 0.665,-3.322 2.99,-5.813 7.308,-5.481 4.319,0.332 5.315,3.458 4.983,5.632 C 6.511,-4.219 5.989,-1.615 4.019,-0.731 2.392,0 0,0 0,0"
           style="fill:#8abf4e;fill-opacity:1;fill-rule:nonzero;stroke:none"
           id="path875" />
      </g>
      <g
         id="kleck_ne"
         transform="translate(181.2355,338.9539)"
         inkscape:label="kleck_ne">
        <desc
           id="desc1015">kleck_ne</desc>
        <title
           id="title1013">kleck_ne</title>
        <path
           d="M 0,0 C -0.664,0 -3.156,-0.665 -2.824,-2.657 -2.491,-4.651 1.495,-4.983 1.495,-4.983 2.99,-3.986 3.82,-1.661 2.99,-0.831 2.159,0 0,0 0,0"
           style="fill:#8abf4e;fill-opacity:1;fill-rule:nonzero;stroke:none"
           id="path879" />
      </g>
      <g
         id="kleck_n"
         transform="translate(139.1757,361.6438)"
         inkscape:label="kleck_n">
        <desc
           id="desc1011">kleck_n</desc>
        <title
           id="title1009">kleck_n</title>
        <path
           d="m 0,0 c -1.094,2.872 -2.622,3.342 -4.209,2.669 -1.586,-0.673 -2.848,-1.918 -3.212,-3.412 -0.364,-1.493 -1.037,-2.708 0.208,-3.969 1.246,-1.262 3.01,-1.169 4.558,0.239 C -1.107,-3.065 0.262,-0.688 0,0"
           style="fill:#8abf4e;fill-opacity:1;fill-rule:nonzero;stroke:none"
           id="path883" />
      </g>
      <g
         id="kleck_se"
         transform="translate(176.5849,262.7173)"
         inkscape:label="kleck_se">
        <desc
           id="desc1007">kleck_se</desc>
        <title
           id="title1005">kleck_se</title>
        <path
           d="m 0,0 c 0,0 11.46,-11.46 21.426,-12.457 9.965,-0.996 12.291,0.332 14.45,-2.325 2.159,-2.658 3.156,-9.966 -0.83,-11.959 -3.987,-1.993 -7.475,-2.823 -10.63,0.997 C 21.26,-21.924 0,0 0,0"
           style="fill:#8abf4e;fill-opacity:1;fill-rule:nonzero;stroke:none"
           id="path887" />
      </g>
      <g
         id="kleck_s"
         transform="translate(129.2486,236.9729)"
         inkscape:label="kleck_s">
        <desc
           id="desc1003">kleck_s</desc>
        <title
           id="title1001">kleck_s</title>
        <path
           d="m 0,0 c -2.491,-1.827 -6.123,-1.827 -4.39,-5.149 1.733,-3.322 1.329,-6.643 6.43,-5.813 5.102,0.83 6.597,2.55 5.932,5.417 C 7.308,-2.679 5.005,0 3.322,0 Z"
           style="fill:#8abf4e;fill-opacity:1;fill-rule:nonzero;stroke:none"
           id="path891" />
      </g>
    </g>
    <g
       id="g905"
       transform="matrix(1.1024814,0,0,-1.1024814,94.562549,100.97679)"
       inkscape:label="atom"
       clip-path="url(#clipPath2496)">
      <desc
         id="desc987">atom</desc>
      <title
         id="title985">atom</title>
      <g
         id="atom_sw"
         inkscape:label="atom_sw">
        <desc
           id="desc983">atom_sw</desc>
        <title
           id="title981">atom_sw</title>
        <g
           id="atom_sn"
           transform="translate(0.88949791,40.0325)"
           inkscape:label="atom_sn">
          <desc
             id="desc999">atom_sn</desc>
          <title
             id="title997">atom_sn</title>
          <path
             d="m 0,0 c -14.041,0 -25.423,-34.183 -25.423,-76.35 0,-42.167 11.382,-76.35 25.423,-76.35"
             style="fill:none;stroke:#8abf4e;stroke-width:1.875;stroke-linecap:butt;stroke-linejoin:miter;stroke-miterlimit:4;stroke-dasharray:none;stroke-opacity:1"
             id="path895" />
        </g>
        <g
           id="atom_nw"
           transform="translate(-0.38130212,-0.17159686)"
           inkscape:label="atom_nw">
          <desc
             id="desc995">atom_nw</desc>
          <title
             id="title993">atom_nw</title>
          <path
             d="m 0,0 c -23.349,18.375 -44.915,26.659 -52.717,18.858 -9.928,-9.929 6.194,-42.148 36.011,-71.965 5.475,-5.475 11.031,-10.488 16.515,-14.963"
             style="fill:none;stroke:#8abf4e;stroke-width:1.875;stroke-linecap:butt;stroke-linejoin:miter;stroke-miterlimit:4;stroke-dasharray:none;stroke-opacity:1"
             id="path899" />
        </g>
        <g
           id="atom_w"
           transform="translate(0.88970041,-10.894902)"
           inkscape:label="atom_w">
          <desc
             id="desc991">atom_w</desc>
          <title
             id="title989">atom_w</title>
          <path
             d="m 0,0 c -42.167,0 -76.35,-11.382 -76.35,-25.423 0,-14.041 34.183,-25.423 76.35,-25.423"
             style="fill:none;stroke:#8abf4e;stroke-width:1.875;stroke-linecap:butt;stroke-linejoin:miter;stroke-miterlimit:4;stroke-dasharray:none;stroke-opacity:1"
             id="path903" />
        </g>
        <path
           d="m 0,0 c -5.67,-4.592 -11.422,-9.763 -17.087,-15.428 -29.817,-29.817 -45.939,-62.037 -36.011,-71.965 7.743,-7.743 29.046,0.36 52.193,18.447"
           style="fill:none;fill-opacity:1;stroke:#8abf4e;stroke-width:1.875;stroke-linecap:butt;stroke-linejoin:miter;stroke-miterlimit:4;stroke-dasharray:none;stroke-opacity:1"
           id="path907" />
      </g>
    </g>
  </g>
</svg>
